{
    "vendor" : "Test Vendor",
    "businessContactName" : "Naman",
    "businessContactEmail" : "das@das.com",
    "businessContactTitle" : "rTitle",
    "businessContactPhone" : "00",
    "legalContactName" : "Naman",
    "legalContactTitle" : "rTitle",
    "legalContactEmail" : "das@dsa.com",
    "legalContactPhone" : "99",
    "purchaseCategory" : "121010 - Animal Supplies",
    "budgetLineItem" : "dasdas",
    "estimatedBreakdown" : "0.00",
    "purchaseCategoryComments" : "random Comments",
    "payeeContactName" : "Naman",
    "payeeContactTitle" : "rTitle",
    "payeeContactEmail" : "random@random.com",
    "payeeContactPhone" : "11",
    "projectLeadName" : "Lynnette McCrary",
    "budgetOwnerName" : "Lynnette McCrary",
    "projectCode" : "0227 - Xcytrin-Lung Cancer Single Agent,P2",
    "startDate" : "6/29/2018",
    "endDate" : "7/22/2018",
    "agreementType" : "MS",
    "abbvie" : "Yes",
    "abbvieData" : "randomData",
    "services" : "random Services Data",
    "gxp" : "No"

}
